<svg xmlns="http://www.w3.org/2000/svg" width="154.617" height="40" viewBox="0 0 154.617 40">
  <g id="optasy" transform="translate(-2 -9.821)">
    <path id="Path_1" data-name="Path 1" d="M38.761,49.624a1.744,1.744,0,0,1-1.741-1.73V24.144a1.651,1.651,0,0,1,1.63-1.729H48.933a8.324,8.324,0,0,1,2.042.275,8.666,8.666,0,0,1,3.912,2.146,7.969,7.969,0,0,1,1.8,2.769,11.235,11.235,0,0,1,.692,4.018A7.877,7.877,0,0,1,53.4,38.894a14.942,14.942,0,0,1-7.444,1.593,1.73,1.73,0,0,1,0-3.461,11.652,11.652,0,0,0,5.713-1.144,4.425,4.425,0,0,0,2.251-4.258,6.937,6.937,0,0,0-.762-3.4,4.115,4.115,0,0,0-1.593-1.581,5.73,5.73,0,0,0-2.631-.749H40.5v22a1.723,1.723,0,0,1-1.742,1.729M83.187,24.155a1.723,1.723,0,0,0-1.73-1.741H62.794a1.742,1.742,0,0,0,0,3.483h7.563v22a1.722,1.722,0,0,0,1.742,1.73,1.744,1.744,0,0,0,1.742-1.73v-22h7.614a1.724,1.724,0,0,0,1.732-1.742m23.782,25.332a1.779,1.779,0,0,0,.865-2.319L97.065,23.416a1.724,1.724,0,0,0-1.558-1,1.757,1.757,0,0,0-1.593,1L82.976,47.168c-.347.8-.451,1.765.311,2.249A1.789,1.789,0,0,0,85.538,49a30.041,30.041,0,0,1,4.847-3.773,15.63,15.63,0,0,1,5.193-2.044,14.551,14.551,0,0,1,6.682.1l2.39,5.332a1.8,1.8,0,0,0,2.319.866M100.7,39.792a18.41,18.41,0,0,0-5.678.312,22.632,22.632,0,0,0-6.2,2.354L95.473,28.3Zm21.8,10.387c2.284,0,8.378-1.073,9.417-6.232.692-3.461-.277-7.547-7.687-9.348-5.781-1.419-8.31-2.285-8.31-5.193,0-3.15,3.082-4.188,5.782-4.188a9.341,9.341,0,0,1,3.393.449,7.884,7.884,0,0,1,3.014,1.973,4.967,4.967,0,0,0,.483.416,1.446,1.446,0,0,0,1.8-.416,1.641,1.641,0,0,0,.312-1.627,6.318,6.318,0,0,0-3.844-3.288,14.519,14.519,0,0,0-5.158-.9c-2.389,0-6.474.484-8.586,4.708a7.694,7.694,0,0,0,.242,6.336,8.305,8.305,0,0,0,4.259,3.255,26.339,26.339,0,0,0,4.882,1.421c2.492.519,5.436,1.385,6.231,3.738a3.637,3.637,0,0,1-.1,2.493,4.926,4.926,0,0,1-3.809,2.77,13.159,13.159,0,0,1-4.536.069,8.027,8.027,0,0,1-5.054-2.493,2.545,2.545,0,0,0-.728-.762c-1.246-.624-2.527.9-2.112,2.112a5.79,5.79,0,0,0,2.943,3.047,13.6,13.6,0,0,0,4.432,1.453,18.286,18.286,0,0,0,2.737.207m35.223-25.067a1.778,1.778,0,0,0-.506-2.424,1.75,1.75,0,0,0-2.41.485l-7.891,11.806L139.06,23.173a1.716,1.716,0,0,0-2.381-.485,1.769,1.769,0,0,0-.468,2.424l9.035,13.5v9.277a1.767,1.767,0,0,0,1.741,1.73,1.744,1.744,0,0,0,1.741-1.73V38.616l8.994-13.5" transform="translate(-1.384 -0.358)" fill="#fff"/>
    <path id="Path_2" data-name="Path 2" d="M16.494,10.169l-.316-.348-.315.348a85.631,85.631,0,0,0-9.41,12.8l9.726-7.1c4.209,5.252,10.233,14.048,10.233,19.9A10.233,10.233,0,1,1,16.179,25.627a1.955,1.955,0,1,0,0-3.91A14.053,14.053,0,1,0,30.356,35.769C30.355,25.539,17.06,10.791,16.494,10.169Z" fill="#fff"/>
  </g>
</svg>
